GAMS 24.7.4  r58773 Released Sep 19, 2016 WEX-WEI x86 64bit/MS Windows                                                                                                                                                                 03/27/17 03:00:14 Page 1
G e n e r a l   A l g e b r a i c   M o d e l i n g   S y s t e m
C o m p i l a t i o n


   1  set
   2   
   3  p        Parents
   4  m        Präferenzkriterien /m0, m1*m15/
   5  n        Nannies
   6   
   7  ok(p,n)
   8   
   9  ;
  10  parameter
  11   
  12  c(p,m)   Präferenzwerte der Parents
  13  d(n,m)   Nannykriterien
  14   
  15  ;
  16  free variable
  17   
  18  ZFW
  19   
  20  binary variable
  21   
  22  z(p,n)     1 wenn Parent p und Nanny n ausgewählt werden
  23   
  24  ;
  25  *****
INCLUDE    C:\Sites\nannynanny\match_Nannies.inc
  27  set n /
  28  n2,
  29  n3,
  30  n4,
  31  n5,
  32  n6,
  33  n7,
  34  n8,
  35  n9,
  36  n10,
  37  n11,
  38  n12,
  39  n13,
  40  n14,
  41  n15,
  42  n16,
  43  n17,
  44  n18,
  45  n19,
  46  n20,
  47  n21,
  48  n22,
  49  n23,
  50  n24,
  51  n25,
  52  n26,
  53  n27,
GAMS 24.7.4  r58773 Released Sep 19, 2016 WEX-WEI x86 64bit/MS Windows                                                                                                                                                                 03/27/17 03:00:14 Page 2
G e n e r a l   A l g e b r a i c   M o d e l i n g   S y s t e m
C o m p i l a t i o n


  54  n28,
  55  n29,
  56  n30,
  57  n31,
  58  n33,
  59  n34,
  60  n35,
  61  n36,
  62  n37,
  63  n38,
  64  n39,
  65  n40,
  66  n41,
  67  n42,
  68  n43,
  69  n44,
  70  n45,
  71  n46,
  72  n47,
  73  n48,
  74  n49,
  75  n50,
  76  n51,
  77  n52,
  78  n53,
  79  n54,
  80  n55,
  81  n56,
  82  n57,
  83  n58,
  84  n59,
  85  n60,
  86  n61,
  87  n62,
  88  n63,
  89  n64,
  90  n65,
  91  n66,
  92  n67,
  93  n68,
  94  n69,
  95  n70,
  96  n71,
  97  n72,
  98  n73,
  99  n74,
 100  n75,
 101  n76,
 102  n77,
 103  n78,
 104  n79,
 105  n80,
 106  n81,
GAMS 24.7.4  r58773 Released Sep 19, 2016 WEX-WEI x86 64bit/MS Windows                                                                                                                                                                 03/27/17 03:00:14 Page 3
G e n e r a l   A l g e b r a i c   M o d e l i n g   S y s t e m
C o m p i l a t i o n


 107  n82,
 108  n83,
 109  n84,
 110  n85,
 111  n86,
 112  n87,
 113  n88,
 114  n89,
 115  n90,
 116  n91,
 117  n92,
 118  n93,
 119  n94,
 120  n95,
 121  n96,
 122  n97,
 123  n98,
 124  n99,
 125  n100,
 126  n101
 127  /;
INCLUDE    C:\Sites\nannynanny\match_Parents.inc
 129  set p /
 130  p102,
 131  p103,
 132  p104,
 133  p105,
 134  p106,
 135  p107,
 136  p108,
 137  p109,
 138  p110,
 139  p111,
 140  p112,
 141  p113,
 142  p114,
 143  p115,
 144  p116,
 145  p117,
 146  p118,
 147  p119,
 148  p120,
 149  p121,
 150  p122,
 151  p123,
 152  p124,
 153  p125,
 154  p126,
 155  p127,
 156  p128,
 157  p129,
 158  p130,
 159  p131,
GAMS 24.7.4  r58773 Released Sep 19, 2016 WEX-WEI x86 64bit/MS Windows                                                                                                                                                                 03/27/17 03:00:14 Page 4
G e n e r a l   A l g e b r a i c   M o d e l i n g   S y s t e m
C o m p i l a t i o n


 160  p132,
 161  p133,
 162  p134,
 163  p135,
 164  p136,
 165  p137,
 166  p138,
 167  p139,
 168  p140,
 169  p141,
 170  p142,
 171  p143,
 172  p144,
 173  p145,
 174  p146,
 175  p147,
 176  p148,
 177  p149,
 178  p150,
 179  p151,
 180  p152,
 181  p153,
 182  p154,
 183  p155,
 184  p156,
 185  p157,
 186  p158,
 187  p159,
 188  p160,
 189  p161,
 190  p162,
 191  p163,
 192  p164,
 193  p165,
 194  p166,
 195  p167,
 196  p168,
 197  p169,
 198  p170,
 199  p171,
 200  p172,
 201  p173,
 202  p174,
 203  p175,
 204  p176,
 205  p177,
 206  p178,
 207  p179,
 208  p180,
 209  p181,
 210  p182,
 211  p183,
 212  p184,
GAMS 24.7.4  r58773 Released Sep 19, 2016 WEX-WEI x86 64bit/MS Windows                                                                                                                                                                 03/27/17 03:00:14 Page 5
G e n e r a l   A l g e b r a i c   M o d e l i n g   S y s t e m
C o m p i l a t i o n


 213  p185,
 214  p186,
 215  p187,
 216  p188,
 217  p189,
 218  p190,
 219  p191,
 220  p192,
 221  p193,
 222  p194,
 223  p195,
 224  p196,
 225  p197,
 226  p198,
 227  p199,
 228  p200,
 229  p201
 230  /;
INCLUDE    C:\Sites\nannynanny\match_Nannies_Attributes.inc
 232  table d(n, m)
 233          m0      m1      m2      m3      m4      m5      m6      m7      m8      m9      m10     m11     m12     m13     m14     m15
 234  n2      1       1       0       1       1       1       0       1       1       1       1       0       1       0       1       1
 235  n3      1       1       0       1       1       0       1       1       1       0       1       1       0       1       0       1
 236  n4      1       1       1       1       1       1       0       1       1       0       1       1       1       1       0       0
 237  n5      1       1       1       0       1       1       1       1       1       1       1       1       0       1       1       0
 238  n6      1       1       1       1       1       1       1       0       1       1       0       1       1       1       1       1
 239  n7      1       0       1       0       1       1       0       1       1       1       1       1       1       1       1       1
 240  n8      1       1       1       1       0       0       1       1       1       1       1       1       1       1       1       1
 241  n9      1       1       1       1       1       1       1       0       1       1       1       1       1       1       1       0
 242  n10     1       1       0       1       0       1       1       1       0       1       1       1       1       1       1       1
 243  n11     1       1       1       0       1       1       1       1       0       1       0       0       1       0       0       1
 244  n12     1       0       0       1       1       1       0       1       0       1       1       1       1       0       1       1
 245  n13     1       0       0       1       1       1       1       1       1       1       1       1       1       1       0       1
 246  n14     1       1       1       0       1       1       1       0       0       1       0       1       1       1       1       0
 247  n15     1       1       1       1       1       1       1       1       0       1       1       1       1       1       0       1
 248  n16     1       1       1       1       1       0       1       1       1       0       1       1       1       1       0       1
 249  n17     1       1       1       0       1       1       1       1       1       1       1       1       1       1       1       1
 250  n18     1       1       1       0       1       0       0       0       0       1       1       1       0       1       1       1
 251  n19     1       1       0       0       1       1       1       0       1       0       1       1       0       0       1       1
 252  n20     1       1       1       1       0       1       1       0       1       1       0       1       1       1       1       1
 253  n21     1       1       1       0       0       1       1       1       1       0       1       1       1       1       1       1
 254  n22     1       1       1       0       1       0       0       0       1       1       1       1       1       1       1       1
 255  n23     1       1       0       1       0       0       1       0       1       1       1       1       1       1       0       1
 256  n24     1       1       1       1       1       1       1       1       1       0       0       1       1       1       1       1
 257  n25     1       1       1       1       0       1       1       0       1       1       0       1       1       0       1       1
 258  n26     1       1       1       1       0       1       0       1       0       1       1       0       1       1       0       0
 259  n27     1       0       0       1       1       1       1       1       1       1       1       1       0       1       1       1
 260  n28     1       1       0       0       0       1       1       1       0       1       0       1       1       1       1       1
 261  n29     1       1       1       1       1       1       1       0       1       1       1       1       1       1       1       1
 262  n30     1       1       1       1       1       1       1       1       0       1       1       0       1       1       1       0
 263  n31     1       1       1       0       0       0       0       1       1       1       1       0       1       1       1       0
 264  n33     1       1       1       1       1       1       1       1       1       1       0       1       1       0       0       1
 265  n34     1       1       1       1       1       1       1       1       1       1       1       1       1       1       1       1
GAMS 24.7.4  r58773 Released Sep 19, 2016 WEX-WEI x86 64bit/MS Windows                                                                                                                                                                 03/27/17 03:00:14 Page 6
G e n e r a l   A l g e b r a i c   M o d e l i n g   S y s t e m
C o m p i l a t i o n


 266  n35     1       1       1       1       1       1       1       0       1       1       1       1       1       1       1       0
 267  n36     1       1       1       1       1       0       1       0       1       1       0       1       1       1       0       1
 268  n37     1       1       1       1       0       1       1       1       1       1       1       0       1       1       1       0
 269  n38     1       0       1       1       1       1       1       1       0       1       1       0       1       1       1       0
 270  n39     1       1       0       0       1       1       0       1       0       1       0       1       1       1       1       1
 271  n40     1       0       0       1       1       1       1       1       1       1       0       1       1       1       1       1
 272  n41     1       1       1       1       1       1       1       0       1       0       1       1       0       1       1       1
 273  n42     1       1       1       0       1       1       1       1       0       1       0       1       1       0       1       1
 274  n43     1       1       0       1       1       1       1       1       1       1       1       0       1       1       1       0
 275  n44     1       1       1       0       1       1       1       1       1       1       1       1       0       1       1       1
 276  n45     1       1       1       1       1       1       1       0       1       0       1       1       1       1       0       1
 277  n46     1       1       1       0       1       1       0       1       1       0       1       1       0       1       1       1
 278  n47     1       1       1       0       1       1       1       1       1       0       1       1       0       1       1       1
 279  n48     1       0       1       1       1       1       1       1       1       1       1       1       1       1       0       1
 280  n49     1       1       0       1       1       1       1       1       1       1       1       0       0       0       1       1
 281  n50     1       1       1       1       0       1       1       0       1       1       1       1       1       1       1       0
 282  n51     1       0       1       0       1       0       1       1       1       0       1       1       1       0       1       0
 283  n52     1       1       0       1       1       0       1       1       1       0       1       0       1       1       1       1
 284  n53     1       1       1       0       1       0       1       1       1       1       0       0       1       1       1       0
 285  n54     1       1       1       0       1       1       1       0       1       1       1       1       1       1       1       0
 286  n55     1       1       0       1       0       1       0       1       1       1       1       1       1       1       1       1
 287  n56     1       1       1       0       1       1       1       1       1       1       1       1       0       0       1       1
 288  n57     1       1       1       1       1       0       1       0       1       0       1       1       1       1       1       1
 289  n58     1       0       1       0       1       0       1       0       1       1       1       1       1       1       0       1
 290  n59     1       1       1       0       1       0       0       0       1       1       1       1       1       0       1       1
 291  n60     1       1       0       0       1       1       1       1       0       1       1       1       1       1       1       1
 292  n61     1       1       0       1       1       1       1       1       0       1       1       1       1       1       1       1
 293  n62     1       1       1       1       1       1       1       0       1       1       1       0       1       0       1       1
 294  n63     1       1       1       1       1       1       1       1       1       1       0       0       1       1       1       0
 295  n64     1       1       1       1       1       0       1       0       0       0       1       1       1       1       1       1
 296  n65     1       0       0       1       0       1       1       1       1       1       0       1       0       1       1       1
 297  n66     1       1       1       1       1       1       0       1       1       1       0       1       1       1       1       1
 298  n67     1       1       1       1       1       0       1       1       0       0       1       1       1       0       0       1
 299  n68     1       1       1       1       1       1       0       1       0       1       0       1       1       1       1       0
 300  n69     1       1       1       1       1       0       1       1       1       1       0       0       1       0       1       1
 301  n70     1       0       1       1       1       1       1       1       1       1       1       1       1       1       0       1
 302  n71     1       1       0       1       1       0       1       0       1       1       0       1       1       0       1       1
 303  n72     1       1       1       1       1       0       1       1       1       0       0       1       1       1       1       0
 304  n73     1       0       1       0       1       0       1       1       0       1       1       1       0       1       0       1
 305  n74     1       1       1       1       0       1       0       1       1       0       1       0       0       1       1       1
 306  n75     1       0       1       1       0       0       1       1       1       1       1       1       1       1       1       1
 307  n76     1       1       1       1       1       1       1       0       0       1       1       1       1       1       0       0
 308  n77     1       1       0       1       1       1       1       1       1       1       0       0       1       0       1       1
 309  n78     1       1       1       1       1       1       1       1       0       1       1       1       1       1       1       1
 310  n79     1       1       1       1       1       1       1       1       1       1       0       1       1       1       0       1
 311  n80     1       1       0       1       1       0       1       1       1       0       1       1       1       1       1       1
 312  n81     1       0       1       1       0       1       1       0       0       1       0       1       1       1       0       1
 313  n82     1       1       1       0       1       1       1       1       1       0       1       1       1       1       0       1
 314  n83     1       0       1       1       1       1       1       1       1       1       0       1       1       1       0       1
 315  n84     1       1       0       1       1       1       0       1       1       1       1       1       1       1       1       1
 316  n85     1       0       1       1       0       1       1       1       0       1       1       1       1       1       0       1
 317  n86     1       0       1       1       1       0       0       0       0       1       1       0       1       0       1       1
 318  n87     1       1       0       1       1       1       1       1       1       1       1       1       1       1       1       1
GAMS 24.7.4  r58773 Released Sep 19, 2016 WEX-WEI x86 64bit/MS Windows                                                                                                                                                                 03/27/17 03:00:14 Page 7
G e n e r a l   A l g e b r a i c   M o d e l i n g   S y s t e m
C o m p i l a t i o n


 319  n88     1       1       1       1       0       1       1       0       1       1       0       1       0       1       1       1
 320  n89     1       1       1       0       1       0       0       1       0       1       1       1       1       1       1       1
 321  n90     1       0       1       1       1       1       1       1       1       1       0       1       0       1       1       0
 322  n91     1       1       1       0       0       0       0       1       1       1       1       1       0       0       1       1
 323  n92     1       0       1       0       1       1       1       1       0       0       1       1       1       1       0       1
 324  n93     1       1       1       1       0       1       0       1       0       1       1       1       0       0       1       1
 325  n94     1       1       1       1       0       1       0       1       0       1       1       0       0       1       1       1
 326  n95     1       1       1       1       1       1       1       1       1       1       1       1       0       1       1       1
 327  n96     1       1       0       1       1       1       1       0       1       0       1       1       1       1       1       1
 328  n97     1       1       1       0       0       1       1       1       1       0       0       1       0       0       1       1
 329  n98     1       1       1       1       1       1       1       1       1       1       1       1       1       1       1       0
 330  n99     1       1       1       0       0       1       1       0       1       0       1       1       1       1       1       1
 331  n100    1       1       0       1       0       1       1       1       1       0       0       1       1       1       1       1
 332  n101    1       1       1       0       1       0       1       0       1       1       1       1       0       1       1       1
INCLUDE    C:\Sites\nannynanny\match_Parents_Preferences.inc
 334  table c(p,m)
 335          m0      m1      m2      m3      m4      m5      m6      m7      m8      m9      m10     m11     m12     m13     m14     m15
 336  p102    1       0.1     0.0     0.0     1.6     1.1     1.2     1.0     1.3     1.7     1.6     0.0     2.0     1.5     0.9     1.3
 337  p103    1       1.7     1.7     1.9     1.7     0.3     0.0     1.3     0.5     0.3     0.3     1.7     0.7     0.0     0.6     0.3
 338  p104    1       1.9     0.7     0.6     0.0     1.0     0.5     1.0     0.7     0.0     0.0     0.1     0.9     0.8     0.0     0.0
 339  p105    1       0.3     0.6     1.0     1.1     1.7     0.7     1.7     0.0     0.6     1.4     0.0     0.1     2.0     1.0     0.8
 340  p106    1       1.8     0.3     0.0     1.3     0.0     1.9     0.3     1.8     1.8     0.5     0.0     0.3     0.4     1.3     1.9
 341  p107    1       0.0     0.4     1.5     1.2     1.2     0.0     1.7     1.4     1.0     0.1     0.0     0.0     0.4     1.9     1.0
 342  p108    1       1.9     1.4     0.4     1.6     0.5     1.7     0.0     0.9     0.7     1.5     1.6     0.9     0.8     1.7     0.0
 343  p109    1       1.5     0.1     0.7     1.4     0.0     1.8     1.7     1.4     0.9     1.3     1.1     1.7     1.7     0.9     0.6
 344  p110    1       0.0     1.3     1.4     0.0     1.6     0.5     1.3     0.0     1.8     2.0     0.0     1.0     0.3     0.3     1.3
 345  p111    1       0.3     1.0     1.7     0.6     0.3     1.8     1.4     0.4     0.7     1.3     0.0     1.3     0.4     0.3     0.0
 346  p112    1       1.7     0.3     2.0     0.2     2.0     1.1     0.0     1.9     1.4     0.4     0.3     1.0     1.8     2.0     0.0
 347  p113    1       1.5     0.9     0.0     0.0     0.2     0.0     0.0     0.0     0.0     1.8     1.4     1.2     1.7     0.5     0.8
 348  p114    1       0.4     0.0     0.6     0.8     1.5     2.0     0.0     1.1     2.0     1.1     1.7     1.4     0.3     1.0     0.0
 349  p115    1       1.0     0.8     0.2     0.0     0.7     1.3     0.0     0.6     0.8     0.5     0.9     0.5     1.1     0.0     0.0
 350  p116    1       0.5     1.0     0.0     0.8     0.0     0.0     0.1     1.3     1.2     0.1     1.0     1.6     1.3     0.0     0.0
 351  p117    1       0.0     0.3     0.2     0.0     0.7     0.1     0.2     1.6     0.0     0.3     0.6     0.1     0.3     0.0     1.4
 352  p118    1       1.4     1.0     1.7     0.4     0.0     1.6     2.0     0.0     1.5     0.3     1.0     1.6     0.2     0.3     0.0
 353  p119    1       1.9     0.0     0.1     1.8     0.7     0.0     1.6     0.5     1.4     0.0     1.0     0.9     1.3     0.8     1.4
 354  p120    1       0.0     1.1     1.6     0.4     1.9     0.0     0.0     0.0     1.6     0.0     1.0     1.5     1.2     0.5     0.5
 355  p121    1       1.5     0.6     0.0     0.9     0.0     0.6     0.0     1.0     1.5     0.3     0.0     0.6     0.0     1.1     0.0
 356  p122    1       0.0     0.2     0.4     1.4     1.3     0.0     0.4     1.6     0.0     1.0     1.3     1.6     1.3     2.0     0.0
 357  p123    1       1.4     0.5     1.7     0.5     1.3     1.7     0.0     0.9     1.8     1.1     0.7     2.0     0.0     1.6     0.1
 358  p124    1       1.2     1.3     0.8     0.5     0.0     0.0     1.5     1.5     0.0     1.6     0.1     1.0     1.7     0.7     1.5
 359  p125    1       0.5     0.3     1.0     0.2     0.0     0.6     0.0     0.0     0.9     1.5     0.0     2.0     0.2     1.5     0.8
 360  p126    1       1.9     1.8     1.2     0.0     1.4     0.0     0.7     0.0     2.0     1.3     0.0     0.6     1.2     1.7     0.1
 361  p127    1       0.0     0.3     1.2     0.6     0.2     0.0     0.8     1.5     0.6     0.0     0.7     0.6     0.0     1.2     1.5
 362  p128    1       1.3     0.0     1.4     1.5     0.0     1.7     1.3     1.7     1.5     0.5     0.0     0.0     0.3     1.5     1.7
 363  p129    1       0.5     1.3     1.7     1.5     0.7     0.0     0.7     0.4     1.6     0.0     0.9     0.0     2.0     0.3     0.0
 364  p130    1       1.4     0.8     1.2     2.0     1.5     0.2     0.1     0.5     1.5     1.7     1.8     0.0     0.0     1.9     1.1
 365  p131    1       0.9     0.5     0.2     0.4     1.4     0.9     0.0     1.6     0.7     1.3     0.0     1.0     1.9     0.2     0.0
 366  p132    1       2.0     1.3     0.2     0.0     1.9     1.3     0.9     0.6     0.9     1.6     0.0     0.5     1.8     0.2     0.4
 367  p133    1       1.3     0.0     1.3     1.5     0.0     0.8     0.2     1.4     1.0     1.7     1.1     0.0     1.9     1.4     1.7
 368  p134    1       0.8     1.4     1.8     0.8     0.9     1.6     1.5     0.9     0.2     0.9     1.2     0.0     0.0     0.7     0.3
 369  p135    1       0.3     1.2     1.0     0.0     1.9     0.5     0.7     1.1     0.0     0.0     0.0     1.0     1.7     1.4     1.7
 370  p136    1       0.0     1.3     1.5     0.2     1.3     1.5     1.0     0.0     1.3     0.7     0.7     0.0     1.3     1.5     0.6
 371  p137    1       0.2     0.7     0.9     0.0     1.7     0.6     0.4     1.2     1.2     1.7     1.5     0.3     1.5     0.1     0.0
GAMS 24.7.4  r58773 Released Sep 19, 2016 WEX-WEI x86 64bit/MS Windows                                                                                                                                                                 03/27/17 03:00:14 Page 8
G e n e r a l   A l g e b r a i c   M o d e l i n g   S y s t e m
C o m p i l a t i o n


 372  p138    1       0.0     1.1     1.1     1.9     0.7     1.0     0.0     1.4     0.0     1.1     0.0     0.9     1.8     0.0     0.2
 373  p139    1       0.2     0.9     0.9     0.2     0.1     0.4     1.3     2.0     0.0     0.0     1.0     0.5     0.0     1.1     1.3
 374  p140    1       1.6     0.0     1.9     0.8     0.3     0.3     0.0     1.9     1.5     0.4     0.9     0.0     0.7     0.8     1.9
 375  p141    1       1.7     0.6     0.3     0.0     0.8     0.6     1.8     0.6     0.7     0.0     1.2     0.1     1.0     1.0     0.4
 376  p142    1       0.5     1.7     1.9     1.5     1.8     1.7     1.3     1.5     0.0     0.7     0.3     0.3     0.7     0.0     0.9
 377  p143    1       0.0     0.4     0.6     1.1     1.9     0.9     1.3     1.2     0.3     0.5     2.0     0.3     0.6     0.1     1.2
 378  p144    1       1.6     0.4     0.9     0.7     1.2     1.4     0.3     0.7     1.9     1.7     1.8     0.0     0.0     0.0     0.9
 379  p145    1       1.8     1.6     1.0     0.0     0.1     2.0     0.4     0.0     2.0     0.0     1.4     1.1     1.6     0.4     0.8
 380  p146    1       1.5     1.5     0.1     0.0     0.3     0.0     0.8     0.4     0.0     0.1     0.4     1.7     1.1     0.0     1.8
 381  p147    1       0.0     0.7     0.0     0.1     1.0     0.2     0.7     0.3     0.5     0.4     1.3     0.9     0.0     0.0     1.0
 382  p148    1       0.0     0.8     1.4     1.3     0.0     0.4     1.9     1.3     0.0     0.0     0.2     1.3     0.1     1.9     0.1
 383  p149    1       1.2     0.0     1.6     0.0     0.5     1.9     1.4     1.1     0.7     1.3     1.4     0.1     0.0     0.6     1.3
 384  p150    1       0.7     0.8     0.8     0.5     1.3     1.7     0.0     1.7     0.0     1.7     0.9     0.0     1.6     1.6     1.7
 385  p151    1       1.0     0.2     0.1     1.4     0.5     0.3     1.2     1.1     1.8     1.9     1.1     1.7     1.1     0.0     0.6
 386  p152    1       1.9     0.0     0.0     1.8     1.5     2.0     1.6     0.8     2.0     0.2     0.0     1.8     0.5     1.7     0.3
 387  p153    1       0.7     0.0     1.1     1.5     1.7     0.0     0.1     1.5     0.0     1.5     0.0     0.8     1.6     1.9     0.2
 388  p154    1       0.4     0.8     1.9     0.0     0.2     0.9     0.0     1.6     0.0     0.2     0.0     0.0     1.0     1.4     1.3
 389  p155    1       0.9     0.0     1.4     1.7     1.8     0.0     1.6     1.6     1.2     0.5     0.0     1.1     2.0     0.0     1.5
 390  p156    1       1.3     0.0     1.0     1.6     1.2     1.7     1.7     0.0     0.0     0.0     1.7     1.5     0.3     1.4     1.8
 391  p157    1       0.7     1.3     0.5     0.3     0.0     0.0     0.0     0.7     0.9     0.1     0.0     0.5     0.0     0.0     0.0
 392  p158    1       0.0     0.0     0.0     0.0     0.4     0.5     0.4     1.5     1.8     0.0     1.6     1.7     0.2     0.0     1.3
 393  p159    1       0.0     1.5     0.5     1.5     0.0     1.9     0.0     1.8     0.0     0.3     0.0     1.2     1.1     0.0     1.7
 394  p160    1       1.7     0.8     0.3     1.2     1.1     0.7     1.5     0.0     0.5     1.9     0.0     0.0     1.0     2.0     2.0
 395  p161    1       1.5     1.1     0.4     0.9     0.5     1.0     0.0     0.6     1.2     0.7     0.6     0.1     1.9     0.4     0.0
 396  p162    1       1.7     1.4     0.1     0.3     0.0     1.3     0.3     1.2     0.0     0.1     0.2     1.7     1.7     0.0     0.9
 397  p163    1       0.0     1.0     0.8     0.3     1.2     0.2     0.5     0.2     0.0     1.0     0.1     1.6     0.1     0.3     0.3
 398  p164    1       0.5     1.3     1.5     0.2     2.0     1.5     1.7     1.8     1.4     1.9     1.1     0.4     0.4     0.2     1.6
 399  p165    1       0.0     1.7     0.4     0.0     1.9     0.0     0.1     1.0     0.2     1.6     1.6     0.6     1.1     0.5     1.9
 400  p166    1       1.1     2.0     1.3     1.3     0.0     1.2     0.0     1.7     0.7     1.5     0.3     1.8     0.0     0.0     1.3
 401  p167    1       0.0     0.3     0.0     0.0     0.8     0.4     0.3     1.8     0.2     0.8     1.7     0.6     0.0     0.6     1.6
 402  p168    1       0.8     1.5     1.3     0.3     0.9     1.5     0.0     1.4     1.7     0.0     0.5     1.9     1.1     1.4     0.0
 403  p169    1       1.2     0.1     0.3     1.7     0.9     0.0     0.5     1.1     1.9     1.6     0.4     1.0     1.9     1.1     0.0
 404  p170    1       2.0     0.0     0.9     0.6     1.7     0.0     1.4     0.9     1.5     0.7     0.5     1.2     1.0     0.0     1.5
 405  p171    1       1.8     1.5     0.0     0.1     1.4     1.6     1.3     0.3     0.0     1.3     0.0     0.0     0.0     1.5     1.1
 406  p172    1       0.0     0.0     0.0     1.3     1.9     1.0     0.3     1.3     0.0     1.4     0.2     0.0     0.0     0.2     0.9
 407  p173    1       1.2     1.2     0.0     0.2     1.1     1.9     0.0     1.7     1.6     1.7     0.0     1.0     0.0     0.0     0.1
 408  p174    1       0.6     1.0     0.0     0.7     0.5     1.6     0.1     0.0     1.8     1.8     0.9     0.0     1.1     1.9     1.6
 409  p175    1       1.6     1.2     0.7     0.0     2.0     0.4     0.0     0.1     0.0     0.7     0.0     1.8     1.3     0.0     1.7
 410  p176    1       0.9     0.9     1.6     1.3     0.5     1.6     1.4     0.0     0.0     0.0     0.0     0.8     1.6     1.9     1.4
 411  p177    1       1.8     0.3     0.0     0.7     1.0     0.0     1.6     1.3     0.1     1.3     0.0     0.0     0.1     1.5     0.9
 412  p178    1       1.6     2.0     0.5     0.3     1.3     1.2     2.0     1.0     1.0     1.6     1.0     0.0     0.6     0.0     0.0
 413  p179    1       0.3     1.3     0.0     1.4     0.6     0.7     0.4     0.0     1.7     0.8     0.1     0.5     1.0     1.2     0.2
 414  p180    1       0.7     0.9     1.9     0.9     1.7     0.0     0.8     0.6     0.0     0.0     0.0     0.4     1.5     1.3     1.6
 415  p181    1       0.1     0.7     0.5     0.4     0.5     0.0     0.4     1.3     1.2     1.2     1.2     1.0     0.5     0.7     2.0
 416  p182    1       1.2     1.5     0.2     0.0     1.7     1.6     0.7     1.7     1.6     0.0     1.3     0.3     1.5     1.9     0.5
 417  p183    1       0.0     0.0     1.4     0.5     0.0     1.2     1.1     0.2     1.2     0.9     0.4     1.2     1.7     1.7     1.5
 418  p184    1       1.6     1.5     1.4     0.7     0.0     1.8     1.4     1.6     1.7     0.1     0.3     0.4     0.2     1.0     0.5
 419  p185    1       1.4     1.1     1.1     1.8     0.2     0.0     0.2     0.0     0.8     0.4     0.2     1.1     1.0     1.9     1.7
 420  p186    1       0.0     0.0     1.6     0.0     1.0     1.3     1.6     0.0     0.0     0.0     0.5     1.5     1.6     0.8     0.6
 421  p187    1       0.0     1.6     1.5     1.1     1.2     1.2     0.5     1.8     0.6     1.9     1.6     1.0     1.2     0.0     0.4
 422  p188    1       1.4     0.0     0.0     0.0     0.2     0.8     0.7     0.2     0.9     1.6     0.1     1.6     0.6     2.0     0.0
 423  p189    1       0.5     2.0     0.0     0.0     0.9     1.7     0.0     1.4     0.8     1.6     1.8     1.0     0.8     0.0     0.0
 424  p190    1       1.0     1.4     0.6     0.9     1.8     0.0     0.0     0.0     0.5     1.2     0.8     1.7     0.2     1.1     0.0
GAMS 24.7.4  r58773 Released Sep 19, 2016 WEX-WEI x86 64bit/MS Windows                                                                                                                                                                 03/27/17 03:00:14 Page 9
G e n e r a l   A l g e b r a i c   M o d e l i n g   S y s t e m
C o m p i l a t i o n


 425  p191    1       1.5     1.3     1.8     0.0     0.1     0.7     0.0     0.0     1.5     0.6     0.8     0.0     0.1     0.7     0.1
 426  p192    1       1.8     1.4     0.0     1.7     1.4     0.0     1.9     0.6     1.4     0.4     0.0     1.8     0.5     0.0     0.3
 427  p193    1       0.0     0.3     1.2     1.0     1.0     0.8     0.4     2.0     0.0     1.9     0.0     0.8     0.9     1.0     0.7
 428  p194    1       1.3     1.6     0.5     0.9     0.0     0.9     1.9     1.1     1.8     0.4     1.7     0.9     0.7     0.0     1.1
 429  p195    1       0.2     0.0     0.0     1.0     0.4     1.3     0.0     0.8     0.9     0.8     0.0     1.4     0.4     1.6     0.7
 430  p196    1       0.0     0.0     0.0     0.0     0.6     1.6     1.8     1.7     0.8     0.6     0.8     0.0     1.1     0.9     0.9
 431  p197    1       0.0     0.0     1.5     0.0     0.0     0.0     1.2     1.8     0.0     0.5     1.8     1.5     0.2     1.3     1.2
 432  p198    1       1.4     1.3     0.0     1.6     0.0     0.0     0.3     0.0     0.5     0.0     0.0     1.4     1.5     1.3     1.6
 433  p199    1       0.0     1.8     0.0     1.3     1.3     0.0     0.2     0.6     0.9     0.0     1.0     1.7     1.2     1.7     1.1
 434  p200    1       1.4     0.5     0.7     0.0     1.0     0.2     0.3     1.8     1.0     1.0     1.1     0.5     1.0     0.0     0.1
 435  p201    1       0.0     0.0     0.0     1.9     1.7     0.0     0.0     0.0     0.0     0.0     0.0     0.0     0.0     0.0     0.0
INCLUDE    C:\Sites\nannynanny\match_Filter_Results.inc
 437  set ok(p,n);
 438  ok(p,n)=no;
 439  ok('p102','n6')=yes;
 440  ok('p102','n10')=yes;
 441  ok('p102','n20')=yes;
 442  ok('p105','n7')=yes;
 443  ok('p105','n19')=yes;
 444  ok('p105','n21')=yes;
 445  ok('p105','n25')=yes;
 446  ok('p105','n36')=yes;
 447  ok('p105','n83')=yes;
 448  ok('p105','n90')=yes;
 449  ok('p106','n33')=yes;
 450  ok('p107','n20')=yes;
 451  ok('p107','n33')=yes;
 452  ok('p108','n33')=yes;
 453  ok('p108','n92')=yes;
 454  ok('p109','n2')=yes;
 455  ok('p109','n10')=yes;
 456  ok('p109','n17')=yes;
 457  ok('p109','n33')=yes;
 458  ok('p109','n35')=yes;
 459  ok('p109','n39')=yes;
 460  ok('p109','n83')=yes;
 461  ok('p109','n84')=yes;
 462  ok('p109','n87')=yes;
 463  ok('p109','n88')=yes;
 464  ok('p109','n92')=yes;
 465  ok('p109','n97')=yes;
 466  ok('p110','n2')=yes;
 467  ok('p110','n6')=yes;
 468  ok('p110','n19')=yes;
 469  ok('p110','n29')=yes;
 470  ok('p110','n33')=yes;
 471  ok('p110','n101')=yes;
 472  ok('p111','n19')=yes;
 473  ok('p111','n20')=yes;
 474  ok('p111','n33')=yes;
 475  ok('p112','n33')=yes;
 476  ok('p112','n92')=yes;
 477  ok('p113','n33')=yes;
GAMS 24.7.4  r58773 Released Sep 19, 2016 WEX-WEI x86 64bit/MS Windows                                                                                                                                                                03/27/17 03:00:14 Page 10
G e n e r a l   A l g e b r a i c   M o d e l i n g   S y s t e m
C o m p i l a t i o n


 478  ok('p114','n11')=yes;
 479  ok('p114','n24')=yes;
 480  ok('p114','n33')=yes;
 481  ok('p114','n85')=yes;
 482  ok('p114','n97')=yes;
 483  ok('p115','n27')=yes;
 484  ok('p118','n33')=yes;
 485  ok('p119','n5')=yes;
 486  ok('p119','n92')=yes;
 487  ok('p122','n20')=yes;
 488  ok('p122','n33')=yes;
 489  ok('p122','n88')=yes;
 490  ok('p123','n3')=yes;
 491  ok('p123','n39')=yes;
 492  ok('p123','n89')=yes;
 493  ok('p124','n6')=yes;
 494  ok('p124','n17')=yes;
 495  ok('p124','n20')=yes;
 496  ok('p124','n25')=yes;
 497  ok('p124','n33')=yes;
 498  ok('p124','n38')=yes;
 499  ok('p124','n39')=yes;
 500  ok('p125','n33')=yes;
 501  ok('p128','n20')=yes;
 502  ok('p130','n20')=yes;
 503  ok('p130','n39')=yes;
 504  ok('p131','n3')=yes;
 505  ok('p131','n33')=yes;
 506  ok('p131','n39')=yes;
 507  ok('p131','n85')=yes;
 508  ok('p134','n20')=yes;
 509  ok('p137','n3')=yes;
 510  ok('p137','n13')=yes;
 511  ok('p137','n21')=yes;
 512  ok('p137','n25')=yes;
 513  ok('p137','n39')=yes;
 514  ok('p140','n6')=yes;
 515  ok('p140','n20')=yes;
 516  ok('p140','n22')=yes;
 517  ok('p140','n33')=yes;
 518  ok('p140','n34')=yes;
 519  ok('p140','n36')=yes;
 520  ok('p140','n38')=yes;
 521  ok('p141','n92')=yes;
 522  ok('p142','n20')=yes;
 523  ok('p142','n22')=yes;
 524  ok('p143','n10')=yes;
 525  ok('p143','n22')=yes;
 526  ok('p144','n10')=yes;
 527  ok('p144','n20')=yes;
 528  ok('p144','n37')=yes;
 529  ok('p144','n92')=yes;
 530  ok('p146','n6')=yes;
GAMS 24.7.4  r58773 Released Sep 19, 2016 WEX-WEI x86 64bit/MS Windows                                                                                                                                                                03/27/17 03:00:14 Page 11
G e n e r a l   A l g e b r a i c   M o d e l i n g   S y s t e m
C o m p i l a t i o n


 531  ok('p147','n2')=yes;
 532  ok('p148','n5')=yes;
 533  ok('p148','n22')=yes;
 534  ok('p148','n29')=yes;
 535  ok('p148','n41')=yes;
 536  ok('p148','n89')=yes;
 537  ok('p148','n91')=yes;
 538  ok('p148','n96')=yes;
 539  ok('p148','n101')=yes;
 540  ok('p150','n33')=yes;
 541  ok('p152','n64')=yes;
 542  ok('p152','n67')=yes;
 543  ok('p152','n68')=yes;
 544  ok('p154','n68')=yes;
 545  ok('p159','n68')=yes;
 546  ok('p161','n46')=yes;
 547  ok('p162','n70')=yes;
 548  ok('p163','n46')=yes;
 549  ok('p163','n53')=yes;
 550  ok('p163','n59')=yes;
 551  ok('p163','n97')=yes;
 552  ok('p164','n67')=yes;
 553  ok('p165','n45')=yes;
 554  ok('p165','n53')=yes;
 555  ok('p165','n67')=yes;
 556  ok('p165','n77')=yes;
 557  ok('p166','n46')=yes;
 558  ok('p168','n46')=yes;
 559  ok('p173','n85')=yes;
 560  ok('p176','n101')=yes;
 561  ok('p177','n71')=yes;
 562  ok('p177','n72')=yes;
 563  ok('p177','n75')=yes;
 564  ok('p177','n76')=yes;
 565  ok('p178','n75')=yes;
 566  ok('p179','n44')=yes;
 567  ok('p181','n67')=yes;
 568  ok('p181','n96')=yes;
 569  ok('p184','n44')=yes;
 570  ok('p184','n94')=yes;
 571  ok('p184','n100')=yes;
 572  ok('p187','n46')=yes;
 573  ok('p187','n53')=yes;
 574  ok('p187','n54')=yes;
 575  ok('p187','n68')=yes;
 576  ok('p187','n71')=yes;
 577  ok('p187','n72')=yes;
 578  ok('p192','n75')=yes;
 579  ok('p194','n46')=yes;
 580  ok('p195','n75')=yes;
 581  ok('p199','n67')=yes;
 582  ok('p200','n46')=yes;
 583  ok('p200','n53')=yes;
GAMS 24.7.4  r58773 Released Sep 19, 2016 WEX-WEI x86 64bit/MS Windows                                                                                                                                                                03/27/17 03:00:14 Page 12
G e n e r a l   A l g e b r a i c   M o d e l i n g   S y s t e m
C o m p i l a t i o n


 584  ok('p201','n7')=yes;
 585  ok('p201','n8')=yes;
 586  ok('p201','n12')=yes;
 587  ok('p201','n18')=yes;
 588  ok('p201','n19')=yes;
 589  ok('p201','n36')=yes;
 590  ok('p201','n84')=yes;
 591  ok('p201','n89')=yes;
 592  ok('p201','n94')=yes;
 593  *****
 594   
 595  ;
 596  equations
 597   
 598  Zielfunktion
 599  eins
 600  zwei
 601  ;
 602   
 603  Zielfunktion..
 604    sum((p,n,m)$ok(p,n), c(p,m)*d(n,m)*z(p,n)) =e= ZFW;
 605   
 606  eins(p)..
 607    sum(n$ok(p,n), z(p,n)) =l= 1;
 608   
 609  zwei(n)..
 610    sum(p$ok(p,n), z(p,n)) =l= 1;
 611   
 612  model matching /all/;
 613  matching.optcr = 0.0;
 614  solve matching using mip maximizing ZFW;
 615  display n,p, z.l;
 616   
 617  parameter x(p,n);
 618    x(p,n) = sum(m, c(p,m)*d(n,m))*z.l(p,n);
 619  display x;
 620   
 621  file outputfile / 'many_to_many_results.txt'/;
 622  put outputfile;
 623  loop(p,
 624    loop(n,
 625     if( z.l(p,n) = 1,
 626      put p.tl:0 ',' n.tl /
 627     );
 628    );
 629  );
 630  putclose outputfile;
GAMS 24.7.4  r58773 Released Sep 19, 2016 WEX-WEI x86 64bit/MS Windows                                                                                                                                                                03/27/17 03:00:14 Page 13
G e n e r a l   A l g e b r a i c   M o d e l i n g   S y s t e m
Include File Summary


   SEQ   GLOBAL TYPE      PARENT   LOCAL  FILENAME

     1        1 INPUT          0       0  C:\Sites\nannynanny\many_to_many.gms
     2       26 INCLUDE        1      26  .C:\Sites\nannynanny\match_Nannies.inc
     3      128 INCLUDE        1      27  .C:\Sites\nannynanny\match_Parents.inc
     4      231 INCLUDE        1      28  .C:\Sites\nannynanny\match_Nannies_Attributes.inc
     5      333 INCLUDE        1      29  .C:\Sites\nannynanny\match_Parents_Preferences.inc
     6      436 INCLUDE        1      30  .C:\Sites\nannynanny\match_Filter_Results.inc


COMPILATION TIME     =        0.031 SECONDS      3 MB  24.7.4 r58773 WEX-WEI
GAMS 24.7.4  r58773 Released Sep 19, 2016 WEX-WEI x86 64bit/MS Windows                                                                                                                                                                03/27/17 03:00:14 Page 14
G e n e r a l   A l g e b r a i c   M o d e l i n g   S y s t e m
Equation Listing    SOLVE matching Using MIP From line 614


---- Zielfunktion  =E=  

Zielfunktion..  - ZFW + 13.7*z(p102,n6) + 13.4*z(p102,n10) + 12.1*z(p102,n20) + 12*z(p105,n7) + 8*z(p105,n19) + 11.3*z(p105,n21) + 7.8*z(p105,n25) + 8.2*z(p105,n36) + 11.3*z(p105,n83) + 11.4*z(p105,n90) + 12.4*z(p106,n33) + 9.8*z(p107,n20)
     
      + 10.4*z(p107,n33) + 12.6*z(p108,n33) + 11*z(p108,n92) + 13.1*z(p109,n2) + 14.9*z(p109,n10) + 17.1*z(p109,n17) + 13.9*z(p109,n33) + 15.5*z(p109,n35) + 12.5*z(p109,n39) + 14.1*z(p109,n83) + 15.9*z(p109,n84) + 17.7*z(p109,n87) + 11.7*z(p109,n88)
     
      + 12.4*z(p109,n92) + 10.1*z(p109,n97) + 11.7*z(p110,n2) + 10.5*z(p110,n6) + 6.7*z(p110,n19) + 12.5*z(p110,n29) + 11.2*z(p110,n33) + 8.5*z(p110,n101) + 6*z(p111,n19) + 9.2*z(p111,n20) + 10.5*z(p111,n33) + 12.9*z(p112,n33) + 8.1*z(p112,n92)
     
      + 7*z(p113,n33) + 9.1*z(p114,n11) + 11.8*z(p114,n24) + 12.5*z(p114,n33) + 11.6*z(p114,n85) + 8.7*z(p114,n97) + 7.1*z(p115,n27) + 13.2*z(p118,n33) + 12*z(p119,n5) + 9.7*z(p119,n92) + 10.7*z(p122,n20) + 9.2*z(p122,n33) + 9.1*z(p122,n88)
     
      + 9.1*z(p123,n3) + 10.4*z(p123,n39) + 10.7*z(p123,n89) + 11.3*z(p124,n6) + 13.6*z(p124,n17) + 10.8*z(p124,n20) + 9.1*z(p124,n25) + 10.4*z(p124,n33) + 10.1*z(p124,n38) + 9.2*z(p124,n39) + 7.3*z(p125,n33) + 12.1*z(p128,n20) + 12.9*z(p130,n20)
     
      + 12.3*z(p130,n39) + 8.2*z(p131,n3) + 8.6*z(p131,n33) + 7.5*z(p131,n39) + 8.9*z(p131,n85) + 10.8*z(p134,n20) + 9*z(p137,n3) + 12*z(p137,n13) + 10.9*z(p137,n21) + 9.4*z(p137,n25) + 7.9*z(p137,n39) + 13.6*z(p140,n6) + 12.8*z(p140,n20)
     
      + 11.5*z(p140,n22) + 12.1*z(p140,n33) + 14*z(p140,n34) + 12.5*z(p140,n36) + 7.7*z(p140,n38) + 7.5*z(p141,n92) + 12.3*z(p142,n20) + 9.1*z(p142,n22) + 10.7*z(p143,n10) + 8.7*z(p143,n22) + 12.7*z(p144,n10) + 11.8*z(p144,n20) + 11.1*z(p144,n37)
     
      + 9.4*z(p144,n92) + 9.8*z(p146,n6) + 5.9*z(p147,n2) + 8.9*z(p148,n5) + 8*z(p148,n22) + 9.8*z(p148,n29) + 8.5*z(p148,n41) + 8.6*z(p148,n89) + 7.2*z(p148,n91) + 9*z(p148,n96) + 7.1*z(p148,n101) + 11.1*z(p150,n33) + 11.2*z(p152,n64) + 10.6*z(p152,n67)
     
      + 13.8*z(p152,n68) + 6.7*z(p154,n68) + 6.8*z(p159,n68) + 9.2*z(p161,n46) + 10.2*z(p162,n70) + 6*z(p163,n46) + 5.2*z(p163,n53) + 5.8*z(p163,n59) + 4.8*z(p163,n97) + 12.7*z(p164,n67) + 12.8*z(p165,n45) + 6.2*z(p165,n53) + 8.9*z(p165,n67)
     
      + 7.6*z(p165,n77) + 10.2*z(p166,n46) + 8.9*z(p168,n46) + 9.6*z(p173,n85) + 10.6*z(p176,n101) + 7.3*z(p177,n71) + 8.3*z(p177,n72) + 8.1*z(p177,n75) + 6.3*z(p177,n76) + 11.9*z(p178,n75) + 10.7*z(p179,n44) + 8.5*z(p181,n67) + 10.4*z(p181,n96)
     
      + 13.4*z(p184,n44) + 10.4*z(p184,n94) + 11.2*z(p184,n100) + 12.3*z(p187,n46) + 10*z(p187,n53) + 14.2*z(p187,n54) + 11.3*z(p187,n68) + 10.2*z(p187,n71) + 12.5*z(p187,n72) + 9.3*z(p192,n75) + 11.7*z(p194,n46) + 8.9*z(p195,n75) + 8.1*z(p199,n67)
     
      + 9.2*z(p200,n46) + 7.7*z(p200,n53) + 4.6*z(p201,n7) + z(p201,n8) + 4.6*z(p201,n12) + 2.9*z(p201,n18) + 4.6*z(p201,n19) + 2.9*z(p201,n36) + 4.6*z(p201,n84) + 2.9*z(p201,n89) + 2.7*z(p201,n94) =E= 0 ; (LHS = 0)
     

---- eins  =L=  

eins(p102)..  z(p102,n6) + z(p102,n10) + z(p102,n20) =L= 1 ; (LHS = 0)
     
eins(p105)..  z(p105,n7) + z(p105,n19) + z(p105,n21) + z(p105,n25) + z(p105,n36) + z(p105,n83) + z(p105,n90) =L= 1 ; (LHS = 0)
     
eins(p106)..  z(p106,n33) =L= 1 ; (LHS = 0)
     
REMAINING 53 ENTRIES SKIPPED


---- zwei  =L=  

zwei(n2)..  z(p109,n2) + z(p110,n2) + z(p147,n2) =L= 1 ; (LHS = 0)
     
zwei(n3)..  z(p123,n3) + z(p131,n3) + z(p137,n3) =L= 1 ; (LHS = 0)
     
zwei(n5)..  z(p119,n5) + z(p148,n5) =L= 1 ; (LHS = 0)
     
REMAINING 54 ENTRIES SKIPPED

GAMS 24.7.4  r58773 Released Sep 19, 2016 WEX-WEI x86 64bit/MS Windows                                                                                                                                                                03/27/17 03:00:14 Page 15
G e n e r a l   A l g e b r a i c   M o d e l i n g   S y s t e m
Column Listing      SOLVE matching Using MIP From line 614


---- ZFW  

ZFW
                (.LO, .L, .UP, .M = -INF, 0, +INF, 0)
       -1       Zielfunktion


---- z  1 wenn Parent p und Nanny n ausgewählt werden

z(p102,n6)
                (.LO, .L, .UP, .M = 0, 0, 1, 0)
       13.7     Zielfunktion
        1       eins(p102)
        1       zwei(n6)

z(p102,n10)
                (.LO, .L, .UP, .M = 0, 0, 1, 0)
       13.4     Zielfunktion
        1       eins(p102)
        1       zwei(n10)

z(p102,n20)
                (.LO, .L, .UP, .M = 0, 0, 1, 0)
       12.1     Zielfunktion
        1       eins(p102)
        1       zwei(n20)

REMAINING 151 ENTRIES SKIPPED
GAMS 24.7.4  r58773 Released Sep 19, 2016 WEX-WEI x86 64bit/MS Windows                                                                                                                                                                03/27/17 03:00:14 Page 16
G e n e r a l   A l g e b r a i c   M o d e l i n g   S y s t e m
Model Statistics    SOLVE matching Using MIP From line 614


MODEL STATISTICS

BLOCKS OF EQUATIONS           3     SINGLE EQUATIONS          114
BLOCKS OF VARIABLES           2     SINGLE VARIABLES          155
NON ZERO ELEMENTS           463     DISCRETE VARIABLES        154


GENERATION TIME      =        0.265 SECONDS      4 MB  24.7.4 r58773 WEX-WEI


EXECUTION TIME       =        0.265 SECONDS      4 MB  24.7.4 r58773 WEX-WEI
GAMS 24.7.4  r58773 Released Sep 19, 2016 WEX-WEI x86 64bit/MS Windows                                                                                                                                                                03/27/17 03:00:14 Page 17
G e n e r a l   A l g e b r a i c   M o d e l i n g   S y s t e m
Solution Report     SOLVE matching Using MIP From line 614


               S O L V E      S U M M A R Y

     MODEL   matching            OBJECTIVE  ZFW
     TYPE    MIP                 DIRECTION  MAXIMIZE
     SOLVER  SCIP                FROM LINE  614

**** SOLVER STATUS     1 Normal Completion         
**** MODEL STATUS      1 Optimal                   
**** OBJECTIVE VALUE              424.7000

 RESOURCE USAGE, LIMIT          0.050      1000.000
 ITERATION COUNT, LIMIT         0    2000000000

SCIP             24.7.4 r58773 Released Sep 19, 2016 WEI x86 64bit/MS Windows 

                           LOWER          LEVEL          UPPER

---- EQU Zielfunkt~          .              .              .          

---- EQU eins  

            LOWER          LEVEL          UPPER

p102        -INF            1.0000         1.0000      
p105        -INF            1.0000         1.0000      
p106        -INF             .             1.0000      
p107        -INF             .             1.0000      
p108        -INF            1.0000         1.0000      
p109        -INF            1.0000         1.0000      
p110        -INF            1.0000         1.0000      
p111        -INF            1.0000         1.0000      
p112        -INF             .             1.0000      
p113        -INF             .             1.0000      
p114        -INF            1.0000         1.0000      
p115        -INF            1.0000         1.0000      
p118        -INF            1.0000         1.0000      
p119        -INF            1.0000         1.0000      
p122        -INF            1.0000         1.0000      
p123        -INF            1.0000         1.0000      
p124        -INF            1.0000         1.0000      
p125        -INF             .             1.0000      
p128        -INF            1.0000         1.0000      
p130        -INF            1.0000         1.0000      
p131        -INF            1.0000         1.0000      
p134        -INF             .             1.0000      
p137        -INF            1.0000         1.0000      
p140        -INF            1.0000         1.0000      
p141        -INF             .             1.0000      
p142        -INF            1.0000         1.0000      
p143        -INF            1.0000         1.0000      
p144        -INF            1.0000         1.0000      
p146        -INF             .             1.0000      
p147        -INF            1.0000         1.0000      
GAMS 24.7.4  r58773 Released Sep 19, 2016 WEX-WEI x86 64bit/MS Windows                                                                                                                                                                03/27/17 03:00:14 Page 18
G e n e r a l   A l g e b r a i c   M o d e l i n g   S y s t e m
Solution Report     SOLVE matching Using MIP From line 614


     EQU eins  

            LOWER          LEVEL          UPPER

p148        -INF            1.0000         1.0000      
p150        -INF             .             1.0000      
p152        -INF            1.0000         1.0000      
p154        -INF             .             1.0000      
p159        -INF            1.0000         1.0000      
p161        -INF             .             1.0000      
p162        -INF            1.0000         1.0000      
p163        -INF            1.0000         1.0000      
p164        -INF            1.0000         1.0000      
p165        -INF            1.0000         1.0000      
p166        -INF             .             1.0000      
p168        -INF             .             1.0000      
p173        -INF            1.0000         1.0000      
p176        -INF            1.0000         1.0000      
p177        -INF            1.0000         1.0000      
p178        -INF            1.0000         1.0000      
p179        -INF            1.0000         1.0000      
p181        -INF            1.0000         1.0000      
p184        -INF            1.0000         1.0000      
p187        -INF            1.0000         1.0000      
p192        -INF             .             1.0000      
p194        -INF            1.0000         1.0000      
p195        -INF             .             1.0000      
p199        -INF             .             1.0000      
p200        -INF            1.0000         1.0000      
p201        -INF            1.0000         1.0000      

---- EQU zwei  

            LOWER          LEVEL          UPPER

n2          -INF            1.0000         1.0000      
n3          -INF            1.0000         1.0000      
n5          -INF            1.0000         1.0000      
n6          -INF            1.0000         1.0000      
n7          -INF            1.0000         1.0000      
n8          -INF             .             1.0000      
n10         -INF            1.0000         1.0000      
n11         -INF             .             1.0000      
n12         -INF            1.0000         1.0000      
n13         -INF            1.0000         1.0000      
n17         -INF            1.0000         1.0000      
n18         -INF             .             1.0000      
n19         -INF            1.0000         1.0000      
n20         -INF            1.0000         1.0000      
n21         -INF             .             1.0000      
n22         -INF            1.0000         1.0000      
n24         -INF            1.0000         1.0000      
n25         -INF             .             1.0000      
GAMS 24.7.4  r58773 Released Sep 19, 2016 WEX-WEI x86 64bit/MS Windows                                                                                                                                                                03/27/17 03:00:14 Page 19
G e n e r a l   A l g e b r a i c   M o d e l i n g   S y s t e m
Solution Report     SOLVE matching Using MIP From line 614


     EQU zwei  

            LOWER          LEVEL          UPPER

n27         -INF            1.0000         1.0000      
n29         -INF            1.0000         1.0000      
n33         -INF            1.0000         1.0000      
n34         -INF            1.0000         1.0000      
n35         -INF             .             1.0000      
n36         -INF             .             1.0000      
n37         -INF            1.0000         1.0000      
n38         -INF             .             1.0000      
n39         -INF            1.0000         1.0000      
n41         -INF            1.0000         1.0000      
n44         -INF            1.0000         1.0000      
n45         -INF            1.0000         1.0000      
n46         -INF            1.0000         1.0000      
n53         -INF            1.0000         1.0000      
n54         -INF            1.0000         1.0000      
n59         -INF            1.0000         1.0000      
n64         -INF            1.0000         1.0000      
n67         -INF            1.0000         1.0000      
n68         -INF            1.0000         1.0000      
n70         -INF            1.0000         1.0000      
n71         -INF             .             1.0000      
n72         -INF            1.0000         1.0000      
n75         -INF            1.0000         1.0000      
n76         -INF             .             1.0000      
n77         -INF             .             1.0000      
n83         -INF             .             1.0000      
n84         -INF             .             1.0000      
n85         -INF            1.0000         1.0000      
n87         -INF            1.0000         1.0000      
n88         -INF            1.0000         1.0000      
n89         -INF            1.0000         1.0000      
n90         -INF             .             1.0000      
n91         -INF             .             1.0000      
n92         -INF            1.0000         1.0000      
n94         -INF             .             1.0000      
n96         -INF            1.0000         1.0000      
n97         -INF             .             1.0000      
n100        -INF            1.0000         1.0000      
n101        -INF            1.0000         1.0000      

                           LOWER          LEVEL          UPPER

---- VAR ZFW               -INF          424.7000        +INF         
GAMS 24.7.4  r58773 Released Sep 19, 2016 WEX-WEI x86 64bit/MS Windows                                                                                                                                                                03/27/17 03:00:14 Page 20
G e n e r a l   A l g e b r a i c   M o d e l i n g   S y s t e m
Solution Report     SOLVE matching Using MIP From line 614


---- VAR z  1 wenn Parent p und Nanny n ausgewählt werden

                 LOWER          LEVEL          UPPER

p102.n6            .             1.0000         1.0000      
p102.n10           .              .             1.0000      
p102.n20           .              .             1.0000      
p105.n7            .             1.0000         1.0000      
p105.n19           .              .             1.0000      
p105.n21           .              .             1.0000      
p105.n25           .              .             1.0000      
p105.n36           .              .             1.0000      
p105.n83           .              .             1.0000      
p105.n90           .              .             1.0000      
p106.n33           .              .             1.0000      
p107.n20           .              .             1.0000      
p107.n33           .              .             1.0000      
p108.n33           .              .             1.0000      
p108.n92           .             1.0000         1.0000      
p109.n2            .              .             1.0000      
p109.n10           .              .             1.0000      
p109.n17           .              .             1.0000      
p109.n33           .              .             1.0000      
p109.n35           .              .             1.0000      
p109.n39           .              .             1.0000      
p109.n83           .              .             1.0000      
p109.n84           .              .             1.0000      
p109.n87           .             1.0000         1.0000      
p109.n88           .              .             1.0000      
p109.n92           .              .             1.0000      
p109.n97           .              .             1.0000      
p110.n2            .              .             1.0000      
p110.n6            .              .             1.0000      
p110.n19           .              .             1.0000      
p110.n29           .             1.0000         1.0000      
p110.n33           .              .             1.0000      
p110.n101          .              .             1.0000      
p111.n19           .             1.0000         1.0000      
p111.n20           .              .             1.0000      
p111.n33           .              .             1.0000      
p112.n33           .              .             1.0000      
p112.n92           .              .             1.0000      
p113.n33           .              .             1.0000      
p114.n11           .              .             1.0000      
p114.n24           .             1.0000         1.0000      
p114.n33           .              .             1.0000      
p114.n85           .              .             1.0000      
p114.n97           .              .             1.0000      
p115.n27           .             1.0000         1.0000      
p118.n33           .             1.0000         1.0000      
p119.n5            .             1.0000         1.0000      
p119.n92           .              .             1.0000      
p122.n20           .              .             1.0000      
GAMS 24.7.4  r58773 Released Sep 19, 2016 WEX-WEI x86 64bit/MS Windows                                                                                                                                                                03/27/17 03:00:14 Page 21
G e n e r a l   A l g e b r a i c   M o d e l i n g   S y s t e m
Solution Report     SOLVE matching Using MIP From line 614


     VAR z  1 wenn Parent p und Nanny n ausgewählt werden

                 LOWER          LEVEL          UPPER

p122.n33           .              .             1.0000      
p122.n88           .             1.0000         1.0000      
p123.n3            .              .             1.0000      
p123.n39           .              .             1.0000      
p123.n89           .             1.0000         1.0000      
p124.n6            .              .             1.0000      
p124.n17           .             1.0000         1.0000      
p124.n20           .              .             1.0000      
p124.n25           .              .             1.0000      
p124.n33           .              .             1.0000      
p124.n38           .              .             1.0000      
p124.n39           .              .             1.0000      
p125.n33           .              .             1.0000      
p128.n20           .             1.0000         1.0000      
p130.n20           .              .             1.0000      
p130.n39           .             1.0000         1.0000      
p131.n3            .             1.0000         1.0000      
p131.n33           .              .             1.0000      
p131.n39           .              .             1.0000      
p131.n85           .              .             1.0000      
p134.n20           .              .             1.0000      
p137.n3            .              .             1.0000      
p137.n13           .             1.0000         1.0000      
p137.n21           .              .             1.0000      
p137.n25           .              .             1.0000      
p137.n39           .              .             1.0000      
p140.n6            .              .             1.0000      
p140.n20           .              .             1.0000      
p140.n22           .              .             1.0000      
p140.n33           .              .             1.0000      
p140.n34           .             1.0000         1.0000      
p140.n36           .              .             1.0000      
p140.n38           .              .             1.0000      
p141.n92           .              .             1.0000      
p142.n20           .              .             1.0000      
p142.n22           .             1.0000         1.0000      
p143.n10           .             1.0000         1.0000      
p143.n22           .              .             1.0000      
p144.n10           .              .             1.0000      
p144.n20           .              .             1.0000      
p144.n37           .             1.0000         1.0000      
p144.n92           .              .             1.0000      
p146.n6            .              .             1.0000      
p147.n2            .             1.0000         1.0000      
p148.n5            .              .             1.0000      
p148.n22           .              .             1.0000      
p148.n29           .              .             1.0000      
p148.n41           .             1.0000         1.0000      
p148.n89           .              .             1.0000      
GAMS 24.7.4  r58773 Released Sep 19, 2016 WEX-WEI x86 64bit/MS Windows                                                                                                                                                                03/27/17 03:00:14 Page 22
G e n e r a l   A l g e b r a i c   M o d e l i n g   S y s t e m
Solution Report     SOLVE matching Using MIP From line 614


     VAR z  1 wenn Parent p und Nanny n ausgewählt werden

                 LOWER          LEVEL          UPPER

p148.n91           .              .             1.0000      
p148.n96           .              .             1.0000      
p148.n101          .              .             1.0000      
p150.n33           .              .             1.0000      
p152.n64           .             1.0000         1.0000      
p152.n67           .              .             1.0000      
p152.n68           .              .             1.0000      
p154.n68           .              .             1.0000      
p159.n68           .             1.0000         1.0000      
p161.n46           .              .             1.0000      
p162.n70           .             1.0000         1.0000      
p163.n46           .              .             1.0000      
p163.n53           .              .             1.0000      
p163.n59           .             1.0000         1.0000      
p163.n97           .              .             1.0000      
p164.n67           .             1.0000         1.0000      
p165.n45           .             1.0000         1.0000      
p165.n53           .              .             1.0000      
p165.n67           .              .             1.0000      
p165.n77           .              .             1.0000      
p166.n46           .              .             1.0000      
p168.n46           .              .             1.0000      
p173.n85           .             1.0000         1.0000      
p176.n101          .             1.0000         1.0000      
p177.n71           .              .             1.0000      
p177.n72           .             1.0000         1.0000      
p177.n75           .              .             1.0000      
p177.n76           .              .             1.0000      
p178.n75           .             1.0000         1.0000      
p179.n44           .             1.0000         1.0000      
p181.n67           .              .             1.0000      
p181.n96           .             1.0000         1.0000      
p184.n44           .              .             1.0000      
p184.n94           .              .             1.0000      
p184.n100          .             1.0000         1.0000      
p187.n46           .              .             1.0000      
p187.n53           .              .             1.0000      
p187.n54           .             1.0000         1.0000      
p187.n68           .              .             1.0000      
p187.n71           .              .             1.0000      
p187.n72           .              .             1.0000      
p192.n75           .              .             1.0000      
p194.n46           .             1.0000         1.0000      
p195.n75           .              .             1.0000      
p199.n67           .              .             1.0000      
p200.n46           .              .             1.0000      
p200.n53           .             1.0000         1.0000      
p201.n7            .              .             1.0000      
p201.n8            .              .             1.0000      
GAMS 24.7.4  r58773 Released Sep 19, 2016 WEX-WEI x86 64bit/MS Windows                                                                                                                                                                03/27/17 03:00:14 Page 23
G e n e r a l   A l g e b r a i c   M o d e l i n g   S y s t e m
Solution Report     SOLVE matching Using MIP From line 614


     VAR z  1 wenn Parent p und Nanny n ausgewählt werden

                 LOWER          LEVEL          UPPER

p201.n12           .             1.0000         1.0000      
p201.n18           .              .             1.0000      
p201.n19           .              .             1.0000      
p201.n36           .              .             1.0000      
p201.n84           .              .             1.0000      
p201.n89           .              .             1.0000      
p201.n94           .              .             1.0000      


**** REPORT SUMMARY :        0     NONOPT
                             0 INFEASIBLE
                             0  UNBOUNDED
GAMS 24.7.4  r58773 Released Sep 19, 2016 WEX-WEI x86 64bit/MS Windows                                                                                                                                                                03/27/17 03:00:14 Page 24
G e n e r a l   A l g e b r a i c   M o d e l i n g   S y s t e m
E x e c u t i o n


----    615 SET n  Nannies

n2  ,    n3  ,    n4  ,    n5  ,    n6  ,    n7  ,    n8  ,    n9  ,    n10 ,    n11 ,    n12 ,    n13 ,    n14 ,    n15 ,    n16 ,    n17 ,    n18 ,    n19 ,    n20 ,    n21 ,    n22 ,    n23 ,    n24 ,    n25 ,    n26 ,    n27 ,    n28 ,    n29 
n30 ,    n31 ,    n33 ,    n34 ,    n35 ,    n36 ,    n37 ,    n38 ,    n39 ,    n40 ,    n41 ,    n42 ,    n43 ,    n44 ,    n45 ,    n46 ,    n47 ,    n48 ,    n49 ,    n50 ,    n51 ,    n52 ,    n53 ,    n54 ,    n55 ,    n56 ,    n57 ,    n58 
n59 ,    n60 ,    n61 ,    n62 ,    n63 ,    n64 ,    n65 ,    n66 ,    n67 ,    n68 ,    n69 ,    n70 ,    n71 ,    n72 ,    n73 ,    n74 ,    n75 ,    n76 ,    n77 ,    n78 ,    n79 ,    n80 ,    n81 ,    n82 ,    n83 ,    n84 ,    n85 ,    n86 
n87 ,    n88 ,    n89 ,    n90 ,    n91 ,    n92 ,    n93 ,    n94 ,    n95 ,    n96 ,    n97 ,    n98 ,    n99 ,    n100,    n101


----    615 SET p  Parents

p102,    p103,    p104,    p105,    p106,    p107,    p108,    p109,    p110,    p111,    p112,    p113,    p114,    p115,    p116,    p117,    p118,    p119,    p120,    p121,    p122,    p123,    p124,    p125,    p126,    p127,    p128,    p129
p130,    p131,    p132,    p133,    p134,    p135,    p136,    p137,    p138,    p139,    p140,    p141,    p142,    p143,    p144,    p145,    p146,    p147,    p148,    p149,    p150,    p151,    p152,    p153,    p154,    p155,    p156,    p157
p158,    p159,    p160,    p161,    p162,    p163,    p164,    p165,    p166,    p167,    p168,    p169,    p170,    p171,    p172,    p173,    p174,    p175,    p176,    p177,    p178,    p179,    p180,    p181,    p182,    p183,    p184,    p185
p186,    p187,    p188,    p189,    p190,    p191,    p192,    p193,    p194,    p195,    p196,    p197,    p198,    p199,    p200,    p201


----    615 VARIABLE z.L  1 wenn Parent p und Nanny n ausgewählt werden

              n2          n3          n5          n6          n7         n10         n12         n13         n17         n19         n20         n22         n24         n27         n29         n33         n34         n37         n39         n41

p102                                           1.000
p105                                                       1.000
p110                                                                                                                                                                               1.000
p111                                                                                                                   1.000
p114                                                                                                                                                       1.000
p115                                                                                                                                                                   1.000
p118                                                                                                                                                                                           1.000
p119                               1.000
p124                                                                                                       1.000
p128                                                                                                                               1.000
p130                                                                                                                                                                                                                               1.000
p131                   1.000
p137                                                                                           1.000
p140                                                                                                                                                                                                       1.000
p142                                                                                                                                           1.000
p143                                                                   1.000
p144                                                                                                                                                                                                                   1.000
p147       1.000
p148                                                                                                                                                                                                                                           1.000
p201                                                                               1.000

   +         n44         n45         n46         n53         n54         n59         n64         n67         n68         n70         n72         n75         n85         n87         n88         n89         n92         n96        n100        n101

p108                                                                                                                                                                                                       1.000
p109                                                                                                                                                                   1.000
p122                                                                                                                                                                               1.000
p123                                                                                                                                                                                           1.000
p152                                                                               1.000
p159                                                                                                       1.000
p162                                                                                                                   1.000
p163                                                                   1.000
p164                                                                                           1.000
p165                   1.000
GAMS 24.7.4  r58773 Released Sep 19, 2016 WEX-WEI x86 64bit/MS Windows                                                                                                                                                                03/27/17 03:00:14 Page 25
G e n e r a l   A l g e b r a i c   M o d e l i n g   S y s t e m
E x e c u t i o n


        615 VARIABLE z.L  1 wenn Parent p und Nanny n ausgewählt werden

   +         n44         n45         n46         n53         n54         n59         n64         n67         n68         n70         n72         n75         n85         n87         n88         n89         n92         n96        n100        n101

p173                                                                                                                                                       1.000
p176                                                                                                                                                                                                                                           1.000
p177                                                                                                                               1.000
p178                                                                                                                                           1.000
p179       1.000
p181                                                                                                                                                                                                                   1.000
p184                                                                                                                                                                                                                               1.000
p187                                                       1.000
p194                               1.000
p200                                           1.000


----    619 PARAMETER x  

              n2          n3          n5          n6          n7         n10         n12         n13         n17         n19         n20         n22         n24         n27         n29         n33         n34         n37         n39         n41

p102                                          13.700
p105                                                      12.000
p110                                                                                                                                                                              12.500
p111                                                                                                                   6.000
p114                                                                                                                                                      11.800
p115                                                                                                                                                                   7.100
p118                                                                                                                                                                                          13.200
p119                              12.000
p124                                                                                                      13.600
p128                                                                                                                              12.100
p130                                                                                                                                                                                                                              12.300
p131                   8.200
p137                                                                                          12.000
p140                                                                                                                                                                                                      14.000
p142                                                                                                                                           9.100
p143                                                                  10.700
p144                                                                                                                                                                                                                  11.100
p147       5.900
p148                                                                                                                                                                                                                                           8.500
p201                                                                               4.600

   +         n44         n45         n46         n53         n54         n59         n64         n67         n68         n70         n72         n75         n85         n87         n88         n89         n92         n96        n100        n101

p108                                                                                                                                                                                                      11.000
p109                                                                                                                                                                  17.700
p122                                                                                                                                                                               9.100
p123                                                                                                                                                                                          10.700
p152                                                                              11.200
p159                                                                                                       6.800
p162                                                                                                                  10.200
p163                                                                   5.800
p164                                                                                          12.700
p165                  12.800
GAMS 24.7.4  r58773 Released Sep 19, 2016 WEX-WEI x86 64bit/MS Windows                                                                                                                                                                03/27/17 03:00:14 Page 26
G e n e r a l   A l g e b r a i c   M o d e l i n g   S y s t e m
E x e c u t i o n


        619 PARAMETER x  

   +         n44         n45         n46         n53         n54         n59         n64         n67         n68         n70         n72         n75         n85         n87         n88         n89         n92         n96        n100        n101

p173                                                                                                                                                       9.600
p176                                                                                                                                                                                                                                          10.600
p177                                                                                                                               8.300
p178                                                                                                                                          11.900
p179      10.700
p181                                                                                                                                                                                                                  10.400
p184                                                                                                                                                                                                                              11.200
p187                                                      14.200
p194                              11.700
p200                                           7.700


**** REPORT FILE SUMMARY

outputfile C:\Sites\nannynanny\many_to_many_results.txt


EXECUTION TIME       =        0.047 SECONDS      3 MB  24.7.4 r58773 WEX-WEI


USER: Course License Leibniz University Hannover     S160929:0647AO-GEN
      Lehrstuhl fuer Produktionswirtschaft, WS 2016/2017        DC12409
      License for teaching and research at degree granting institutions


**** FILE SUMMARY

Input      C:\Sites\nannynanny\many_to_many.gms
Output     C:\Sites\nannynanny\many_to_many.lst
